Tidy NPPES NPI Registry • nppez
…
Load

Deactivated NPI Report

: 04-08-2024

readxl::read_xlsx(
  path = fs::path(
    test, 
    "NPPES Deactivated NPI Report 20240408.xlsx"), 
  skip = 1) |> 
  janitor::clean_names() |>
  dplyr::mutate(nppes_deactivation_date = lubridate::mdy(nppes_deactivation_date))
#> # A tibble: 274,370 × 2
#>    npi        nppes_deactivation_date
#>    <chr>      <date>                 
#>  1 1982265062 2024-04-07             
#>  2 1457064735 2024-04-06             
#>  3 1134278393 2024-04-06             
#>  4 1104676717 2024-04-05             
#>  5 1275385866 2024-04-05             
#>  6 1396440467 2024-04-05             
#>  7 1376395137 2024-04-05             
#>  8 1184356867 2024-04-05             
#>  9 1750581948 2024-04-05             
#> 10 1629001540 2024-04-05             
#> # ℹ 274,360 more rows

Practice Location Reference File

: 05-23-2005 to 04-07-2024 All non-primary Practice Locations associated with Type 1 & 2 NPIs

readr::read_csv(
  fs::path(
    test, 
    "pl_pfile_20050523-20240407.csv"
    )
  ) |> 
  janitor::clean_names()
#> # A tibble: 845,499 × 10
#>         npi provider_secondary_p…¹ provider_secondary_p…² provider_secondary_p…³
#>       <dbl> <chr>                  <chr>                  <chr>                 
#>  1   1.15e9 7800 Sheridan St       <NA>                   Pembroke Pines        
#>  2   1.15e9 500 N Hiatus Rd Ste 2… <NA>                   Pembroke Pines        
#>  3   1.70e9 2200 Cedarcrest Dr     Ste A                  Rice Lake             
#>  4   1.70e9 757 Lakeland Dr Ste B  <NA>                   Chippewa Falls        
#>  5   1.12e9 31 S Stanfield Rd Ste… <NA>                   Troy                  
#>  6   1.12e9 3333 W Tech Blvd       <NA>                   Miamisburg            
#>  7   1.06e9 560 Riverside Dr Ste … <NA>                   Salisbury             
#>  8   1.14e9 226 S Woods Mill Rd    Suite 49W              Chesterfield          
#>  9   1.87e9 329 23rd Ave No, Suit… <NA>                   Nashville             
#> 10   1.70e9 1960 S 16th St         <NA>                   Wilmington            
#> # ℹ 845,489 more rows
#> # ℹ abbreviated names:
#> #   ¹​provider_secondary_practice_location_address_address_line_1,
#> #   ²​provider_secondary_practice_location_address_address_line_2,
#> #   ³​provider_secondary_practice_location_address_city_name
#> # ℹ 6 more variables:
#> #   provider_secondary_practice_location_address_state_name <chr>, …

Other Name Reference File

: : 05-23-2005 to 04-07-2024 Additional Other Names associated with Type 2 NPIs

readr::read_csv(
  fs::path(
    test, 
    "othername_pfile_20050523-20240407.csv"
    )
  ) |> 
  janitor::clean_names()
#> # A tibble: 639,667 × 3
#>           npi provider_other_organization_name         provider_other_organiza…¹
#>         <dbl> <chr>                                                        <dbl>
#>  1 1023011053 Vine Discount Pharmacy & Medical Supply                          3
#>  2 1023011178 PROVIDENCE PALLIATIVE CARE NAPA VALLEY                           3
#>  3 1023011178 Providence Hospice Napa Valley                                   3
#>  4 1023011178 Napa Valley Hospice & Adult Day Services                         4
#>  5 1043213093 HOME IV SPECIALISTS INC                                          3
#>  6 1053314252 Alliance HomeCare                                                3
#>  7 1134122328 Horizon Coral Springs LLC                                        3
#>  8 1144223199 Major County EMS                                                 5
#>  9 1174526107 Open Imaging Layton                                              3
#> 10 1174526107 RAYUS RADIOLOGY                                                  3
#> # ℹ 639,657 more rows
#> # ℹ abbreviated name: ¹​provider_other_organization_name_type_code

Endpoint Reference File

: : 05-23-2005 to 04-07-2024 Endpoints associated with Type 1 & 2 NPIs

readr::read_csv(
  fs::path(
    test, 
    "endpoint_pfile_20050523-20240407.csv"
    )
  ) |> 
  janitor::clean_names()
#> # A tibble: 545,028 × 19
#>           npi endpoint_type endpoint_type_description endpoint       affiliation
#>         <dbl> <chr>         <chr>                     <chr>          <chr>      
#>  1 1154324382 DIRECT        Direct Messaging Address  rclose13800@M… N          
#>  2 1154324382 DIRECT        Direct Messaging Address  Richard.Close… N          
#>  3 1962405175 DIRECT        Direct Messaging Address  fredericstelz… N          
#>  4 1699778894 DIRECT        Direct Messaging Address  aawomolo@dire… N          
#>  5 1134122336 DIRECT        Direct Messaging Address  Narasimha.Red… Y          
#>  6 1396748596 DIRECT        Direct Messaging Address  CHRISTIANO.CA… N          
#>  7 1205839404 FHIR          FHIR URL                  https://epicp… Y          
#>  8 1841293040 CONNECT       CONNECT URL               Jennifer.Gile… N          
#>  9 1306849591 DIRECT        Direct Messaging Address  svogel89246@d… N          
#> 10 1003819038 DIRECT        Direct Messaging Address  lgoldberg1086… N          
#> # ℹ 545,018 more rows
#> # ℹ 14 more variables: endpoint_description <chr>,
#> #   affiliation_legal_business_name <chr>, use_code <chr>,
#> #   use_description <chr>, other_use_description <chr>, content_type <chr>,
#> #   content_description <chr>, other_content_description <chr>,
#> #   affiliation_address_line_one <chr>, affiliation_address_line_two <chr>,
#> #   affiliation_address_city <chr>, affiliation_address_state <chr>, …
…
